[
  {
    "type": "get",
    "url": "api/rand/:date",
    "title": "por Fecha",
    "name": "byFecha",
    "group": "Disponibilidad",
    "success": {
      "fields": {
        "Success 200": [
          {
            "group": "Success 200",
            "type": "String",
            "optional": false,
            "field": "name",
            "description": "<p>Nombre del componente</p>"
          },
          {
            "group": "Success 200",
            "type": "String",
            "optional": false,
            "field": "date",
            "description": "<p>Fecha de solicitud</p>"
          },
          {
            "group": "Success 200",
            "type": "String",
            "optional": false,
            "field": "disp",
            "description": "<p>Disponibilidad del componente (0,1)</p>"
          }
        ]
      }
    },
    "parameter": {
      "fields": {
        "Parameter": [
          {
            "group": "Parameter",
            "type": "String",
            "optional": false,
            "field": "date",
            "description": "<p>Fecha de solicitud</p>"
          }
        ]
      }
    },
    "sampleRequest": [
      {
        "url": "http://localhost:3000/api/rand/:date"
      }
    ],
    "version": "0.0.0",
    "filename": "api/routes/random.js",
    "groupTitle": "Disponibilidad"
  },
  {
    "type": "get",
    "url": "/rand/:name/:date",
    "title": "por Nombre y Fecha",
    "name": "byNombreFecha",
    "group": "Disponibilidad",
    "success": {
      "fields": {
        "Success 200": [
          {
            "group": "Success 200",
            "type": "String",
            "optional": false,
            "field": "name",
            "description": "<p>Nombre del componente</p>"
          },
          {
            "group": "Success 200",
            "type": "String",
            "optional": false,
            "field": "date",
            "description": "<p>Fecha de solicitud</p>"
          },
          {
            "group": "Success 200",
            "type": "String",
            "optional": false,
            "field": "disp",
            "description": "<p>Disponibilidad del componente (0,1)</p>"
          }
        ]
      }
    },
    "parameter": {
      "fields": {
        "Parameter": [
          {
            "group": "Parameter",
            "type": "String",
            "optional": false,
            "field": "date",
            "description": "<p>Fecha de solicitud</p>"
          },
          {
            "group": "Parameter",
            "type": "String",
            "optional": false,
            "field": "name",
            "description": "<p>Nombre del componente</p>"
          }
        ]
      }
    },
    "sampleRequest": [
      {
        "url": "http://localhost:3000/api/rand/:name/:date"
      }
    ],
    "version": "0.0.0",
    "filename": "api/routes/random.js",
    "groupTitle": "Disponibilidad"
  }
]
