{
  "name": "example",
  "version": "1.0.0",
  "description": "Documentación de API de tarea de Disponibilidad",
  "title": "API Disponibilidad",
  "sampleUrl": false,
  "defaultVersion": "0.0.0",
  "apidoc": "0.3.0",
  "generator": {
    "name": "apidoc",
    "time": "2017-10-25T14:27:21.972Z",
    "url": "http://apidocjs.com",
    "version": "0.17.6"
  }
}
